{"photos":{"page":1,"pages":21960,"perpage":20,"total":439192,"photo":[{"id":"52371490980","owner":"196517142@N06","secret":"78ef9e24eb","server":"65535","farm":66,"title":"What is Bronchoscopy?","ispublic":1,"isfriend":0,"isfamily":0},{"id":"52370136272","owner":"194717294@N05","secret":"4882984ec3","server":"65535","farm":66,"title":"Natural Skincare That Works","ispublic":1,"isfriend":0,"isfamily":0},{"id":"52371389994","owner":"196517940@N05","secret":"268452b7af","server":"65535","farm":66,"title":"Penis Enlargement Herbal Medicine In Africa +27736844586","ispublic":1,"isfriend":0,"isfamily":0},{"id":"52371055176","owner":"196559368@N06","secret":"be36c39dff","server":"65535","farm":66,"title":"GMAT Preparation Online","ispublic":1,"isfriend":0,"isfamily":0},{"id":"52371363124","owner":"196216828@N04","secret":"c461c8ea54","server":"65535","farm":66,"title":"\u264805472\u2648VIP\u264813404 ARABIC, RUSSIAN Sexy Girls in Dubai-- 500 AED INCALL","ispublic":1,"isfriend":0,"isfamily":0},{"id":"52370107862","owner":"196559368@N06","secret":"a392b3f7e8","server":"65535","farm":66,"title":"GMAT Online Coaching | EduAims","ispublic":1,"isfriend":0,"isfamily":0},{"id":"52371469445","owner":"196309113@N08","secret":"13bb272ed8","server":"65535","farm":66,"title":"Best Digital Marketing Course In Bhubaneswar","ispublic":1,"isfriend":0,"isfamily":0},{"id":"52371468600","owner":"196559368@N06","secret":"b340c9c65f","server":"65535","farm":66,"title":"GMAT Preparation | EduAims","ispublic":1,"isfriend":0,"isfamily":0},{"id":"52371042236","owner":"196216828@N04","secret":"651d34e0a4","server":"65535","farm":66,"title":"\u264805472\u2648VIP\u264813404 PUNJABI Sexy Dancers in Dubai -- FULL NIGHT FUN","ispublic":1,"isfriend":0,"isfamily":0},{"id":"52371035416","owner":"196216828@N04","secret":"e406ae964d","server":"65535","farm":66,"title":"\u264805472\u2648VIP\u264813404 Dubai Call Girls, Call Girls Jumeirah Lakes Tower Dubai","ispublic":1,"isfriend":0,"isfamily":0},{"id":"52371450790","owner":"194522494@N07","secret":"ab8b982d9d","server":"65535","farm":66,"title":"Masterclasses for IELTS Teacher Training","ispublic":1,"isfriend":0,"isfamily":0},{"id":"52371257568","owner":"196216828@N04","secret":"9da507ba22","server":"65535","farm":66,"title":"\u264805472\u2648VIP\u264813404 Indian EScorTs in Palm Jumeirah Dubai","ispublic":1,"isfriend":0,"isfamily":0},{"id":"52371022096","owner":"196216828@N04","secret":"3fdd15f246","server":"65535","farm":66,"title":"\u264805472\u2648VIP\u264813404 Escort Girl Abu Dhabi Abu Dhabi Escort Girls","ispublic":1,"isfriend":0,"isfamily":0},{"id":"52370070882","owner":"196216828@N04","secret":"6b7e6713b7","server":"65535","farm":66,"title":"\u264805472\u2648VIP\u264813404 Abu Dhabi Indian Call Girls Abu Dhabi Escorts","ispublic":1,"isfriend":0,"isfamily":0},{"id":"52370062917","owner":"195651498@N05","secret":"3283bda642","server":"65535","farm":66,"title":"How Can Home Care Providers Help Seniors To Get Rid Of Medical Anxiety?","ispublic":1,"isfriend":0,"isfamily":0},{"id":"52371423735","owner":"193289144@N03","secret":"01731801d2","server":"65535","farm":66,"title":"Why is my download speed slower than speed test? Completely Solved","ispublic":1,"isfriend":0,"isfamily":0},{"id":"52370020022","owner":"195851795@N03","secret":"3c9af8e04d","server":"65535","farm":66,"title":"Accounting Outsourcing Services in India","ispublic":1,"isfriend":0,"isfamily":0},{"id":"52371288879","owner":"196216828@N04","secret":"5f7a253a83","server":"65535","farm":66,"title":"\u264805472\u2648VIP\u264813404 Jumeirah DUBAI Escorts inDEPENDENT","ispublic":1,"isfriend":0,"isfamily":0},{"id":"52371204868","owner":"196430723@N05","secret":"d618b831a6","server":"65535","farm":66,"title":"Nh\u1eadn \u0111\u1ecbnh k\u00e8o ch\u00e2u \u00c1 Central Cordoba vs Gimnasia","ispublic":1,"isfriend":0,"isfamily":0},{"id":"52370975936","owner":"196430723@N05","secret":"6eaeed5f62","server":"65535","farm":66,"title":"Nh\u1eadn \u0111\u1ecbnh k\u00e8o ch\u00e2u \u00c1 Gremio vs Recife","ispublic":1,"isfriend":0,"isfamily":0}]},"stat":"ok"}
